sipo/simulation/qsim/sipo.msim.vcd
$comment
	File created using the following command:
		vcd file sipo.msim.vcd -direction
$end
$date
	Mon Jun 06 08:31:44 2022
$end
$version
	ModelSim Version 10.1d
$end
$timescale
	1ps
$end
$scope module sipo_vlg_vec_tst $end
$var reg 1 ! Clk $end
$var reg 1 " SI $end
$var wire 1 # Po [0] $end
$var wire 1 $ Po [1] $end
$var wire 1 % Po [2] $end
$var wire 1 & Po [3] $end
$var wire 1 ' Po [4] $end
$var wire 1 ( Po [5] $end
$var wire 1 ) Po [6] $end
$var wire 1 * Po [7] $end
$var wire 1 + sampler $end
$scope module i1 $end
$var wire 1 , gnd $end
$var wire 1 - vcc $end
$var wire 1 . unknown $end
$var tri1 1 / devclrn $end
$var tri1 1 0 devpor $end
$var tri1 1 1 devoe $end
$var wire 1 2 Po[7]~output_o $end
$var wire 1 3 Po[6]~output_o $end
$var wire 1 4 Po[5]~output_o $end
$var wire 1 5 Po[4]~output_o $end
$var wire 1 6 Po[3]~output_o $end
$var wire 1 7 Po[2]~output_o $end
$var wire 1 8 Po[1]~output_o $end
$var wire 1 9 Po[0]~output_o $end
$var wire 1 : Clk~input_o $end
$var wire 1 ; SI~input_o $end
$var wire 1 < temp[7]~feeder_combout $end
$var wire 1 = temp [0] $end
$var wire 1 > temp [1] $end
$var wire 1 ? temp [2] $end
$var wire 1 @ temp [3] $end
$var wire 1 A temp [4] $end
$var wire 1 B temp [5] $end
$var wire 1 C temp [6] $end
$var wire 1 D temp [7] $end
$upscope $end
$upscope $end
$enddefinitions $end
#0
$dumpvars
0!
0"
0*
0)
0(
0'
0&
0%
0$
0#
x+
0,
1-
x.
1/
10
11
02
03
04
05
06
07
08
09
0:
0;
0<
0D
zC
zB
zA
z@
z?
z>
z=
$end
#20000
1!
1:
0+
#40000
0!
0:
1+
#60000
1!
1:
0+
#80000
1"
0!
1;
0:
1+
1<
#100000
1!
1:
0+
1D
12
1*
#120000
0!
0:
1+
#140000
1!
1:
0+
#160000
0"
0!
0;
0:
1+
0<
#180000
1!
1:
0+
0D
02
0*
#200000
0!
0:
1+
#220000
1!
1:
0+
#240000
1"
0!
1;
0:
1+
1<
#260000
1!
1:
0+
1D
12
1*
#280000
0!
0:
1+
#300000
1!
1:
0+
#320000
0"
0!
0;
0:
1+
0<
#340000
1!
1:
0+
0D
02
0*
#360000
0!
0:
1+
#380000
1!
1:
0+
#400000
1"
0!
1;
0:
1+
1<
#420000
1!
1:
0+
1D
12
1*
#440000
0!
0:
1+
#460000
1!
1:
0+
#480000
0"
0!
0;
0:
1+
0<
#500000
1!
1:
0+
0D
02
0*
#520000
0!
0:
1+
#540000
1!
1:
0+
#560000
1"
0!
1;
0:
1+
1<
#580000
1!
1:
0+
1D
12
1*
#600000
0!
0:
1+
#620000
1!
1:
0+
#640000
0"
0!
0;
0:
1+
0<
#660000
1!
1:
0+
0D
02
0*
#680000
0!
0:
1+
#700000
1!
1:
0+
#720000
0!
0:
1+
#740000
1!
1:
0+
#760000
0!
0:
1+
#780000
1!
1:
0+
#800000
0!
0:
1+
#820000
1!
1:
0+
#840000
0!
0:
1+
#860000
1!
1:
0+
#880000
0!
0:
1+
#900000
1!
1:
0+
#920000
0!
0:
1+
#940000
1!
1:
0+
#960000
0!
0:
1+
#980000
1!
1:
0+
