piso/simulation/qsim/piso.msim.vcd
$comment
	File created using the following command:
		vcd file piso.msim.vcd -direction
$end
$date
	Thu Jun 09 16:05:14 2022
$end
$version
	ModelSim Version 10.1d
$end
$timescale
	1ps
$end
$scope module piso_vlg_vec_tst $end
$var reg 1 ! Clk $end
$var reg 4 " Parallel_In [3:0] $end
$var reg 1 # load $end
$var wire 1 $ Serial_Out $end
$var wire 1 % sampler $end
$scope module i1 $end
$var wire 1 & gnd $end
$var wire 1 ' vcc $end
$var wire 1 ( unknown $end
$var tri1 1 ) devclrn $end
$var tri1 1 * devpor $end
$var tri1 1 + devoe $end
$var wire 1 , Serial_Out~output_o $end
$var wire 1 - Clk~input_o $end
$var wire 1 . Clk~inputclkctrl_outclk $end
$var wire 1 / load~input_o $end
$var wire 1 0 Parallel_In[3]~input_o $end
$var wire 1 1 Parallel_In[2]~input_o $end
$var wire 1 2 Parallel_In[1]~input_o $end
$var wire 1 3 Parallel_In[0]~input_o $end
$var wire 1 4 tmp~3_combout $end
$var wire 1 5 tmp~2_combout $end
$var wire 1 6 tmp~1_combout $end
$var wire 1 7 tmp~0_combout $end
$var wire 1 8 Serial_Out~0_combout $end
$var wire 1 9 Serial_Out~reg0_q $end
$var wire 1 : tmp [3] $end
$var wire 1 ; tmp [2] $end
$var wire 1 < tmp [1] $end
$var wire 1 = tmp [0] $end
$upscope $end
$upscope $end
$enddefinitions $end
#0
$dumpvars
0!
b1111 "
0#
0$
x%
0&
1'
x(
1)
1*
1+
0,
0-
0.
0/
10
11
12
13
04
05
06
07
08
09
0=
0<
0;
0:
$end
#40000
1#
1/
0%
17
16
15
14
#50000
1!
1-
1.
1%
1:
1;
1<
1=
#80000
0#
0/
0%
18
04
#100000
0!
0-
0.
1%
#120000
1#
1/
0%
08
14
#150000
1!
1-
1.
1%
#160000
0#
0/
0%
18
04
#200000
0!
1#
0-
1/
0.
1%
08
14
#240000
0#
0/
0%
18
04
#250000
1!
1-
1.
1%
0=
19
05
1,
1$
#280000
1#
1/
0%
15
14
#300000
0!
0-
0.
1%
#320000
0#
0/
0%
05
04
#350000
1!
1-
1.
1%
0<
06
#360000
1#
1/
0%
16
15
14
#400000
0!
0#
0-
0/
0.
1%
06
05
04
#440000
1#
1/
0%
16
15
14
#450000
1!
1-
1.
1%
1<
1=
#480000
0#
0/
0%
04
#500000
0!
0-
0.
1%
#520000
1#
1/
0%
14
#550000
1!
1-
1.
1%
#560000
0#
0/
0%
04
#600000
0!
1#
0-
1/
0.
1%
14
#640000
0#
0/
0%
04
#650000
1!
1-
1.
1%
0=
05
#680000
1#
1/
0%
15
14
#700000
0!
0-
0.
1%
#720000
0#
0/
0%
05
04
#750000
1!
1-
1.
1%
0<
06
#760000
1#
1/
0%
16
15
14
#800000
0!
0#
0-
0/
0.
1%
06
05
04
#840000
1#
1/
0%
16
15
14
#850000
1!
1-
1.
1%
1<
1=
#880000
0#
0/
0%
04
#900000
0!
0-
0.
1%
#920000
1#
1/
0%
14
#950000
1!
1-
1.
1%
#960000
0#
0/
0%
04
