pipo/simulation/qsim/pipo.msim.vcd
$comment
	File created using the following command:
		vcd file pipo.msim.vcd -direction
$end
$date
	Mon Jun 06 09:34:00 2022
$end
$version
	ModelSim Version 10.1d
$end
$timescale
	1ps
$end
$scope module pipo_vlg_vec_tst $end
$var reg 1 ! Clk $end
$var reg 4 " PI [3:0] $end
$var wire 1 # PO [3] $end
$var wire 1 $ PO [2] $end
$var wire 1 % PO [1] $end
$var wire 1 & PO [0] $end
$var wire 1 ' sampler $end
$scope module i1 $end
$var wire 1 ( gnd $end
$var wire 1 ) vcc $end
$var wire 1 * unknown $end
$var tri1 1 + devclrn $end
$var tri1 1 , devpor $end
$var tri1 1 - devoe $end
$var wire 1 . PO[0]~output_o $end
$var wire 1 / PO[1]~output_o $end
$var wire 1 0 PO[2]~output_o $end
$var wire 1 1 PO[3]~output_o $end
$var wire 1 2 Clk~input_o $end
$var wire 1 3 Clk~inputclkctrl_outclk $end
$var wire 1 4 PI[0]~input_o $end
$var wire 1 5 PO[0]~reg0feeder_combout $end
$var wire 1 6 PO[0]~reg0_q $end
$var wire 1 7 PI[1]~input_o $end
$var wire 1 8 PO[1]~reg0feeder_combout $end
$var wire 1 9 PO[1]~reg0_q $end
$var wire 1 : PI[2]~input_o $end
$var wire 1 ; PO[2]~reg0feeder_combout $end
$var wire 1 < PO[2]~reg0_q $end
$var wire 1 = PI[3]~input_o $end
$var wire 1 > PO[3]~reg0_q $end
$upscope $end
$upscope $end
$enddefinitions $end
#0
$dumpvars
0!
b1111 "
0&
0%
0$
0#
x'
0(
1)
x*
1+
1,
1-
0.
0/
00
01
02
03
14
15
06
17
18
09
1:
1;
0<
1=
0>
$end
#20000
1!
12
13
0'
1>
1<
19
16
11
10
1/
1.
1#
1$
1%
1&
#40000
0!
02
03
1'
#60000
1!
12
13
0'
#80000
0!
02
03
1'
#100000
1!
12
13
0'
#120000
0!
02
03
1'
#140000
1!
12
13
0'
#160000
0!
02
03
1'
#180000
1!
12
13
0'
#200000
0!
02
03
1'
#220000
1!
12
13
0'
#240000
0!
02
03
1'
#260000
1!
12
13
0'
#280000
0!
02
03
1'
#300000
1!
12
13
0'
#320000
0!
02
03
1'
#340000
1!
12
13
0'
#360000
0!
02
03
1'
#380000
1!
12
13
0'
#400000
0!
02
03
1'
#420000
1!
12
13
0'
#440000
0!
02
03
1'
#460000
1!
12
13
0'
#480000
0!
02
03
1'
#500000
1!
12
13
0'
#520000
0!
02
03
1'
#540000
1!
12
13
0'
#560000
0!
02
03
1'
#580000
1!
12
13
0'
#600000
0!
02
03
1'
#620000
1!
12
13
0'
#640000
0!
02
03
1'
#660000
1!
12
13
0'
#680000
0!
02
03
1'
#700000
1!
12
13
0'
#720000
0!
02
03
1'
#740000
1!
12
13
0'
#760000
0!
02
03
1'
#780000
1!
12
13
0'
#800000
0!
02
03
1'
#820000
1!
12
13
0'
#840000
0!
02
03
1'
#860000
1!
12
13
0'
#880000
0!
02
03
1'
#900000
1!
12
13
0'
#920000
0!
02
03
1'
#940000
1!
12
13
0'
#960000
0!
02
03
1'
#980000
1!
12
13
0'
